<?xml version="1.0" encoding="UTF-8" standalone="no"?>
<!DOCTYPE svg PUBLIC "-//W3C//DTD SVG 1.1//EN"
 "http://www.w3.org/Graphics/SVG/1.1/DTD/svg11.dtd">
<!-- Generated by graphviz version 2.49.2 (20211016.1639)
 -->
<!-- Pages: 1 -->
<svg width="994pt" height="385pt"
 viewBox="0.00 0.00 994.00 385.00" xmlns="http://www.w3.org/2000/svg" xmlns:xlink="http://www.w3.org/1999/xlink">
<g id="graph0" class="graph" transform="scale(1 1) rotate(0) translate(4 381)">
<polygon fill="white" stroke="transparent" points="-4,4 -4,-381 990,-381 990,4 -4,4"/>
<text text-anchor="middle" x="493" y="-7.8" font-family="Times New Roman,serif" font-size="14.00">Basic operation: keep data updated and browsable, provide human&#45;readable RD association repo.</text>
<g id="clust1" class="cluster">
<title>cluster_0</title>
<polygon fill="none" stroke="black" points="357,-294 357,-369 930,-369 930,-294 357,-294"/>
<text text-anchor="middle" x="643.5" y="-353.8" font-family="Times New Roman,serif" font-size="14.00">Roles of people</text>
</g>
<g id="clust2" class="cluster">
<title>cluster_1</title>
<polygon fill="none" stroke="black" points="582,-31 582,-108 732,-108 732,-31 582,-31"/>
<text text-anchor="middle" x="657" y="-92.8" font-family="Times New Roman,serif" font-size="14.00">External elements</text>
</g>
<g id="clust3" class="cluster">
<title>cluster_2</title>
<polygon fill="none" stroke="black" points="8,-32 8,-246 391,-246 391,-32 8,-32"/>
<text text-anchor="middle" x="199.5" y="-230.8" font-family="Times New Roman,serif" font-size="14.00">RD Butler system</text>
</g>
<!-- rpg_creator -->
<g id="node1" class="node">
<title>rpg_creator</title>
<polygon fill="none" stroke="black" points="577.69,-314.44 674,-302 770.31,-314.44 770.22,-334.56 577.78,-334.56 577.69,-314.44"/>
<text text-anchor="middle" x="674" y="-316.3" font-family="Times New Roman,serif" font-size="14.00">RPG story creator</text>
</g>
<!-- rd_repo -->
<g id="node4" class="node">
<title>rd_repo</title>
<polygon fill="none" stroke="black" points="724,-77 721,-81 700,-81 697,-77 590,-77 590,-39 724,-39 724,-77"/>
<text text-anchor="middle" x="657" y="-61.8" font-family="Times New Roman,serif" font-size="14.00">RiggedDice file</text>
<text text-anchor="middle" x="657" y="-46.8" font-family="Times New Roman,serif" font-size="14.00"> repository under Git</text>
</g>
<!-- rpg_creator&#45;&gt;rd_repo -->
<g id="edge1" class="edge">
<title>rpg_creator&#45;&gt;rd_repo</title>
<path fill="none" stroke="black" d="M683.13,-303.11C702.01,-268.07 741.36,-182.04 714,-116 708.93,-103.76 699.81,-92.77 690.33,-83.79"/>
<polygon fill="black" stroke="black" points="692.53,-81.06 682.73,-77.03 687.88,-86.29 692.53,-81.06"/>
<text text-anchor="middle" x="775" y="-200.8" font-family="Times New Roman,serif" font-size="14.00">(1) adds new story</text>
<text text-anchor="middle" x="775" y="-185.8" font-family="Times New Roman,serif" font-size="14.00"> to files</text>
</g>
<!-- rd_admin -->
<g id="node2" class="node">
<title>rd_admin</title>
<polygon fill="none" stroke="black" points="364.58,-314.44 462,-302 559.42,-314.44 559.33,-334.56 364.67,-334.56 364.58,-314.44"/>
<text text-anchor="middle" x="462" y="-316.3" font-family="Times New Roman,serif" font-size="14.00">RD / World admin</text>
</g>
<!-- importer -->
<g id="node5" class="node">
<title>importer</title>
<polygon fill="none" stroke="red" points="299.5,-215 238.5,-215 234.5,-211 234.5,-179 295.5,-179 299.5,-183 299.5,-215"/>
<polyline fill="none" stroke="red" points="295.5,-211 234.5,-211 "/>
<polyline fill="none" stroke="red" points="295.5,-211 295.5,-179 "/>
<polyline fill="none" stroke="red" points="295.5,-211 299.5,-215 "/>
<text text-anchor="middle" x="267" y="-193.3" font-family="Times New Roman,serif" font-size="14.00">Importer</text>
</g>
<!-- rd_admin&#45;&gt;importer -->
<g id="edge2" class="edge">
<title>rd_admin&#45;&gt;importer</title>
<path fill="none" stroke="red" d="M394.59,-310.6C372.3,-305.48 348.29,-297.25 329,-284 307.09,-268.96 290.18,-243.53 279.59,-224.21"/>
<polygon fill="red" stroke="red" points="282.65,-222.52 274.91,-215.29 276.46,-225.78 282.65,-222.52"/>
<text text-anchor="middle" x="364" y="-272.8" font-family="Times New Roman,serif" font-size="14.00" fill="red">(2) Update </text>
<text text-anchor="middle" x="364" y="-257.8" font-family="Times New Roman,serif" font-size="14.00" fill="red">the database</text>
</g>
<!-- exporter -->
<g id="node6" class="node">
<title>exporter</title>
<polygon fill="none" stroke="blue" points="382.5,-215 321.5,-215 317.5,-211 317.5,-179 378.5,-179 382.5,-183 382.5,-215"/>
<polyline fill="none" stroke="blue" points="378.5,-211 317.5,-211 "/>
<polyline fill="none" stroke="blue" points="378.5,-211 378.5,-179 "/>
<polyline fill="none" stroke="blue" points="378.5,-211 382.5,-215 "/>
<text text-anchor="middle" x="350" y="-193.3" font-family="Times New Roman,serif" font-size="14.00">Exporter</text>
</g>
<!-- rd_admin&#45;&gt;exporter -->
<g id="edge5" class="edge">
<title>rd_admin&#45;&gt;exporter</title>
<path fill="none" stroke="blue" d="M447.82,-303.68C428.91,-283.25 395.22,-246.85 372.74,-222.57"/>
<polygon fill="blue" stroke="blue" points="375.23,-220.11 365.87,-215.15 370.1,-224.86 375.23,-220.11"/>
<text text-anchor="middle" x="469.5" y="-272.8" font-family="Times New Roman,serif" font-size="14.00" fill="blue">(5) Update the</text>
<text text-anchor="middle" x="469.5" y="-257.8" font-family="Times New Roman,serif" font-size="14.00" fill="blue"> mkdn files</text>
</g>
<!-- rpg_reader -->
<g id="node3" class="node">
<title>rpg_reader</title>
<polygon fill="none" stroke="black" points="788.14,-314.44 855,-302 921.86,-314.44 921.8,-334.56 788.2,-334.56 788.14,-314.44"/>
<text text-anchor="middle" x="855" y="-316.3" font-family="Times New Roman,serif" font-size="14.00">RPG reader</text>
</g>
<!-- rpg_reader&#45;&gt;rd_repo -->
<g id="edge8" class="edge">
<title>rpg_reader&#45;&gt;rd_repo</title>
<path fill="none" stroke="black" d="M856.29,-301.99C857.58,-274.05 856.58,-217.66 832,-179 803.21,-133.72 750.53,-101.12 710.47,-81.43"/>
<polygon fill="black" stroke="black" points="711.88,-78.22 701.35,-77.06 708.86,-84.54 711.88,-78.22"/>
<text text-anchor="middle" x="919.5" y="-200.8" font-family="Times New Roman,serif" font-size="14.00">(8) Read new metadata,</text>
<text text-anchor="middle" x="919.5" y="-185.8" font-family="Times New Roman,serif" font-size="14.00"> get insights</text>
</g>
<!-- importer&#45;&gt;rd_repo -->
<g id="edge3" class="edge">
<title>importer&#45;&gt;rd_repo</title>
<path fill="none" stroke="red" d="M299.95,-181.81C302.65,-180.8 305.36,-179.85 308,-179 341.03,-168.32 357.49,-183.41 384,-161 400.58,-146.98 386.34,-129.92 403,-116 429.54,-93.82 515.15,-77.79 579.7,-68.48"/>
<polygon fill="red" stroke="red" points="580.45,-71.91 589.86,-67.04 579.47,-64.98 580.45,-71.91"/>
<text text-anchor="middle" x="482" y="-134.8" font-family="Times New Roman,serif" font-size="14.00" fill="red">(3) Reads stories and actors</text>
</g>
<!-- sqlite -->
<g id="node8" class="node">
<title>sqlite</title>
<path fill="none" stroke="black" d="M172,-72.73C172,-74.53 159.9,-76 145,-76 130.1,-76 118,-74.53 118,-72.73 118,-72.73 118,-43.27 118,-43.27 118,-41.47 130.1,-40 145,-40 159.9,-40 172,-41.47 172,-43.27 172,-43.27 172,-72.73 172,-72.73"/>
<path fill="none" stroke="black" d="M172,-72.73C172,-70.92 159.9,-69.45 145,-69.45 130.1,-69.45 118,-70.92 118,-72.73"/>
<text text-anchor="middle" x="145" y="-54.3" font-family="Times New Roman,serif" font-size="14.00">sqlite</text>
</g>
<!-- importer&#45;&gt;sqlite -->
<g id="edge4" class="edge">
<title>importer&#45;&gt;sqlite</title>
<path fill="none" stroke="red" d="M234.38,-196.53C206.02,-195.04 166.37,-187.82 146,-161 129.91,-139.82 132.36,-108.37 137.13,-86.01"/>
<polygon fill="red" stroke="red" points="140.57,-86.68 139.51,-76.14 133.76,-85.04 140.57,-86.68"/>
<text text-anchor="middle" x="196" y="-149.8" font-family="Times New Roman,serif" font-size="14.00" fill="red">(4) puts actors, </text>
<text text-anchor="middle" x="196" y="-134.8" font-family="Times New Roman,serif" font-size="14.00" fill="red">stories, </text>
<text text-anchor="middle" x="196" y="-119.8" font-family="Times New Roman,serif" font-size="14.00" fill="red">locations... to DB</text>
</g>
<!-- exporter&#45;&gt;rd_repo -->
<g id="edge7" class="edge">
<title>exporter&#45;&gt;rd_repo</title>
<path fill="none" stroke="blue" d="M382.63,-194.25C435.42,-190.85 536.5,-181.77 565,-161 583.15,-147.77 573.94,-133.52 588,-116 597.72,-103.89 610.37,-92.55 622.17,-83.22"/>
<polygon fill="blue" stroke="blue" points="624.36,-85.96 630.17,-77.1 620.1,-80.4 624.36,-85.96"/>
<text text-anchor="middle" x="651" y="-142.3" font-family="Times New Roman,serif" font-size="14.00" fill="blue">(7) Writes mkdn files</text>
<text text-anchor="middle" x="651" y="-127.3" font-family="Times New Roman,serif" font-size="14.00" fill="blue"> to appropriate folders</text>
</g>
<!-- exporter&#45;&gt;sqlite -->
<g id="edge6" class="edge">
<title>exporter&#45;&gt;sqlite</title>
<path fill="none" stroke="blue" d="M317.3,-182.47C295.69,-173.42 270.98,-162.86 269,-161 252.61,-145.64 261.55,-132.21 246,-116 227.99,-97.23 202.43,-82.88 181.53,-73.28"/>
<polygon fill="blue" stroke="blue" points="182.86,-70.04 172.3,-69.2 180.03,-76.45 182.86,-70.04"/>
<text text-anchor="middle" x="326.5" y="-149.8" font-family="Times New Roman,serif" font-size="14.00" fill="blue">(6) Read actors, </text>
<text text-anchor="middle" x="326.5" y="-134.8" font-family="Times New Roman,serif" font-size="14.00" fill="blue">stories, </text>
<text text-anchor="middle" x="326.5" y="-119.8" font-family="Times New Roman,serif" font-size="14.00" fill="blue">locations... from DB</text>
</g>
<!-- webapi -->
<g id="node7" class="node">
<title>webapi</title>
<polygon fill="none" stroke="grey" points="82,-215 20,-215 16,-211 16,-179 78,-179 82,-183 82,-215"/>
<polyline fill="none" stroke="grey" points="78,-211 16,-211 "/>
<polyline fill="none" stroke="grey" points="78,-211 78,-179 "/>
<polyline fill="none" stroke="grey" points="78,-211 82,-215 "/>
<text text-anchor="middle" x="49" y="-193.3" font-family="Times New Roman,serif" font-size="14.00">WebAPI</text>
</g>
<!-- webapi&#45;&gt;sqlite -->
<g id="edge9" class="edge">
<title>webapi&#45;&gt;sqlite</title>
<path fill="none" stroke="grey" d="M39.63,-178.82C31.68,-161.71 23.28,-135.28 35,-116 50.79,-90.04 82.64,-75.38 108.02,-67.44"/>
<polygon fill="grey" stroke="grey" points="109.11,-70.77 117.74,-64.63 107.16,-64.05 109.11,-70.77"/>
<text text-anchor="middle" x="79" y="-142.3" font-family="Times New Roman,serif" font-size="14.00" fill="grey">(N) output stuff</text>
<text text-anchor="middle" x="79" y="-127.3" font-family="Times New Roman,serif" font-size="14.00" fill="grey"> to API</text>
</g>
</g>
</svg>
